# Blender v2.78 (sub 0) OBJ File: 'models.blend'
# www.blender.org
mtllib models.mtl
o grass_back_mesh.022
v 0.026448 1.880002 2.777387
v -0.055024 1.810307 2.844745
v 1.045881 1.060817 2.852673
v 1.130753 1.141289 2.804164
v -0.015280 1.808942 2.964956
v 1.066795 1.052297 2.977261
v 0.090755 1.877794 2.971892
v 1.164593 1.127504 3.005752
v 0.116545 1.921710 2.855968
v 1.204120 1.182504 2.898772
v -0.764035 3.157039 2.716745
v -0.760418 3.232345 2.615020
v -0.748043 3.037674 2.677651
v -0.734544 3.039210 2.551764
v -0.742192 3.159522 2.513056
v 2.622331 2.614460 3.010117
v 2.589440 2.626273 3.085320
v 1.328339 1.999857 2.855577
v 1.345468 1.983964 2.776010
v 2.562606 2.552986 3.113353
v 1.368038 1.943795 2.902030
v 2.578913 2.495879 3.055476
v 1.409702 1.893253 2.851172
v 2.615826 2.533873 2.991672
v 1.395753 1.918079 2.773288
v 1.054302 0.406625 2.851874
v 0.945767 0.395376 2.965348
v 0.720008 -0.912950 2.986608
v 0.837103 -0.914214 2.881396
v 1.020630 0.377367 3.102656
v 0.783511 -0.924310 3.130208
v 1.175433 0.377487 3.074045
v 0.939853 -0.932596 3.113744
v 1.196243 0.395568 2.919054
v 0.972975 -0.926356 2.959970
v 1.362714 1.556980 2.910428
v 1.349711 1.576003 2.754699
v 1.227009 1.601838 2.976415
v 1.130135 1.648584 2.861469
v 1.205969 1.632617 2.724441
v 1.563086 2.471317 2.874945
v 1.537865 2.466861 2.719619
v 1.423167 2.478110 2.946773
v 1.311472 2.477853 2.835838
v 1.382359 2.470899 2.695448
v 1.714248 3.704752 2.956555
v 1.705407 3.696358 2.799603
v 1.567772 3.698723 3.013921
v 1.468404 3.686599 2.892426
v 1.553467 3.685136 2.759969
vn -0.2096 -0.3449 -0.9149
vn -0.2984 -0.4488 -0.8423
vn -0.2041 -0.3384 -0.9186
vn -0.5722 -0.8187 0.0474
vn -0.5562 -0.8140 0.1674
vn -0.5550 -0.8134 0.1743
vn -0.1457 -0.1659 0.9753
vn -0.0448 -0.0464 0.9979
vn -0.0393 -0.0400 0.9984
vn 0.4748 0.7049 0.5270
vn 0.5024 0.7613 0.4099
vn 0.4726 0.7005 0.5348
vn 0.4514 0.6287 -0.6333
vn 0.3909 0.5567 -0.7330
vn 0.4543 0.6321 -0.6277
vn 0.7099 0.5549 0.4337
vn 0.7326 0.5650 0.3794
vn 0.7090 0.5545 0.4357
vn 0.6304 -0.7600 -0.1578
vn -0.6558 -0.2984 0.6935
vn -0.1722 0.1234 0.9773
vn -0.6674 -0.3110 0.6766
vn -0.8632 -0.4984 -0.0805
vn -0.8555 -0.4476 0.2605
vn -0.8524 -0.4436 0.2768
vn -0.2044 -0.3146 -0.9270
vn -0.3536 -0.3970 -0.8470
vn -0.3571 -0.3988 -0.8446
vn 0.8272 0.5063 -0.2439
vn 0.6125 0.2141 -0.7610
vn 0.5922 0.1942 -0.7820
vn -0.9894 -0.0974 -0.1073
vn -0.3035 -0.4546 -0.8374
vn -0.5729 -0.8186 0.0402
vn -0.1511 -0.1723 0.9734
vn 0.5039 0.7646 0.4018
vn 0.3876 0.5527 -0.7378
vn 0.7335 0.5654 0.3774
vn -0.1532 0.1374 0.9786
vn -0.8608 -0.4994 -0.0984
vn -0.1992 -0.3116 -0.9291
vn 0.8290 0.5144 -0.2192
vn -0.3905 0.8825 -0.2621
vn -0.3774 0.8758 -0.3010
vn -0.3769 0.8755 -0.3024
vn -0.3646 0.4282 0.8269
vn -0.3702 0.4466 0.8146
vn -0.3704 0.4471 0.8142
vn 0.1857 -0.6193 0.7629
vn 0.2115 -0.6634 0.7177
vn 0.2125 -0.6650 0.7160
vn 0.4769 -0.8109 -0.3392
vn 0.4714 -0.8494 -0.2371
vn 0.4770 -0.8091 -0.3433
vn 0.1110 0.1299 -0.9853
vn 0.0724 0.2146 -0.9740
vn 0.1125 0.1266 -0.9856
vn 0.8933 -0.1676 0.4170
vn -0.7949 -0.6046 -0.0504
vn -0.3910 0.8827 -0.2605
vn -0.3644 0.4275 0.8273
vn 0.1846 -0.6174 0.7647
vn 0.4711 -0.8505 -0.2339
vn 0.0713 0.2171 -0.9735
vn -0.6685 0.1027 -0.7366
vn -0.7200 0.1037 -0.6861
vn -0.7239 0.1038 -0.6821
vn -0.8933 0.1707 0.4158
vn -0.8614 0.1573 0.4829
vn -0.8585 0.1561 0.4885
vn 0.1102 0.0016 0.9939
vn 0.1766 -0.0026 0.9843
vn 0.1048 0.0020 0.9945
vn 0.9665 -0.1671 0.1949
vn 0.9795 -0.1625 0.1188
vn 0.9652 -0.1675 0.2011
vn 0.4863 -0.1001 -0.8681
vn 0.4247 -0.0989 -0.8999
vn 0.4194 -0.0988 -0.9024
vn 0.9863 -0.1420 -0.0843
vn 0.9850 -0.1404 0.1006
vn 0.9849 -0.1419 -0.0996
vn -0.0584 -0.9969 -0.0530
vn 0.4290 0.0538 0.9017
vn 0.2014 0.0694 0.9770
vn 0.4506 0.0521 0.8912
vn -0.7312 0.1644 0.6620
vn -0.8425 0.1918 0.5034
vn -0.8504 0.1938 0.4891
vn -0.8614 0.0565 -0.5048
vn -0.7360 0.0502 -0.6752
vn -0.7242 0.0495 -0.6878
vn 0.1767 -0.1257 -0.9762
vn 0.3907 -0.1738 -0.9040
vn 0.1584 -0.1215 -0.9799
vn 0.9666 -0.2107 -0.1461
vn 0.9699 -0.2161 -0.1118
vn 0.9660 -0.2100 -0.1508
vn 0.4500 -0.0647 0.8907
vn 0.4233 -0.0634 0.9038
vn 0.4532 -0.0648 0.8890
vn -0.6967 0.1745 0.6958
vn -0.7120 0.1818 0.6783
vn -0.7139 0.1827 0.6760
vn -0.8740 0.1691 -0.4556
vn -0.8561 0.1711 -0.4876
vn -0.8534 0.1714 -0.4923
vn 0.1541 -0.0709 -0.9855
vn 0.1751 -0.0714 -0.9820
vn 0.1784 -0.0715 -0.9814
vn 0.9913 -0.1187 -0.0575
vn 0.9813 -0.1231 -0.1477
vn 0.9801 -0.1234 -0.1556
vn 0.3728 -0.1058 0.9219
vn 0.4439 -0.1025 0.8902
vn 0.3664 -0.1061 0.9244
vn -0.7706 0.0574 0.6347
vn -0.7093 0.0581 0.7025
vn -0.7756 0.0573 0.6286
vn -0.8374 0.1346 -0.5298
vn -0.8764 0.1469 -0.4586
vn -0.8333 0.1333 -0.5366
vn 0.2435 0.0290 -0.9695
vn 0.1615 0.0306 -0.9864
vn 0.1543 0.0307 -0.9875
vn -0.0606 0.9969 -0.0499
vn -0.6642 0.1026 -0.7405
vn -0.8959 0.1719 0.4098
vn 0.1817 -0.0029 0.9833
vn 0.9803 -0.1621 0.1127
vn 0.4914 -0.1001 -0.8652
vn 0.9834 -0.1401 0.1157
vn 0.1812 0.0706 0.9809
vn -0.7211 0.1619 0.6736
vn -0.8707 0.0569 -0.4885
vn 0.4096 -0.1778 -0.8948
vn 0.9703 -0.2168 -0.1075
vn 0.4194 -0.0633 0.9056
vn -0.6942 0.1734 0.6986
vn -0.8765 0.1688 -0.4509
vn 0.1514 -0.0708 -0.9859
vn 0.9917 -0.1183 -0.0495
vn 0.4504 -0.1021 0.8870
vn -0.7036 0.0582 0.7082
vn -0.8799 0.1480 -0.4516
vn 0.2503 0.0288 -0.9677
usemtl material_20___22299.010
s 1
f 3//1 1//2 4//3
f 3//4 5//5 2//6
f 6//7 7//8 5//9
f 10//10 7//11 8//12
f 4//13 9//14 10//15
f 11//16 9//17 12//18
f 6//19 3//19 4//19
f 13//20 7//21 11//22
f 13//23 2//24 5//25
f 14//26 1//27 2//28
f 15//29 9//30 1//31
f 13//32 11//32 12//32
f 3//1 2//33 1//2
f 3//4 6//34 5//5
f 6//7 8//35 7//8
f 10//10 9//36 7//11
f 4//13 1//37 9//14
f 11//16 7//38 9//17
f 4//19 10//19 8//19
f 8//19 6//19 4//19
f 13//20 5//39 7//21
f 13//23 14//40 2//24
f 14//26 15//41 1//27
f 15//29 12//42 9//30
f 12//32 15//32 14//32
f 14//32 13//32 12//32
usemtl material_20___22299.019
f 19//43 17//44 16//45
f 18//46 20//47 17//48
f 21//49 22//50 20//51
f 25//52 22//53 23//54
f 19//55 24//56 25//57
f 20//58 22//58 24//58
f 23//59 18//59 25//59
f 19//43 18//60 17//44
f 18//46 21//61 20//47
f 21//49 23//62 22//50
f 25//52 24//63 22//53
f 19//55 16//64 24//56
f 24//58 16//58 17//58
f 17//58 20//58 24//58
f 19//59 25//59 18//59
f 23//59 21//59 18//59
usemtl material_20___22299.015
f 29//65 27//66 26//67
f 28//68 30//69 27//70
f 33//71 30//72 31//73
f 35//74 32//75 33//76
f 35//77 26//78 34//79
f 36//80 34//81 37//82
f 31//83 28//83 29//83
f 38//84 32//85 36//86
f 38//87 27//88 30//89
f 39//90 26//91 27//92
f 37//93 26//94 40//95
f 41//96 37//97 42//98
f 43//99 36//100 41//101
f 43//102 39//103 38//104
f 44//105 40//106 39//107
f 45//108 37//109 40//110
f 47//111 41//112 42//113
f 48//114 41//115 46//116
f 49//117 43//118 48//119
f 50//120 44//121 49//122
f 50//123 42//124 45//125
f 49//126 46//126 50//126
f 29//65 28//127 27//66
f 28//68 31//128 30//69
f 33//71 32//129 30//72
f 35//74 34//130 32//75
f 35//77 29//131 26//78
f 36//80 32//132 34//81
f 29//83 35//83 33//83
f 33//83 31//83 29//83
f 38//84 30//133 32//85
f 38//87 39//134 27//88
f 39//90 40//135 26//91
f 37//93 34//136 26//94
f 41//96 36//137 37//97
f 43//99 38//138 36//100
f 43//102 44//139 39//103
f 44//105 45//140 40//106
f 45//108 42//141 37//109
f 47//111 46//142 41//112
f 48//114 43//143 41//115
f 49//117 44//144 43//118
f 50//120 45//145 44//121
f 50//123 47//146 42//124
f 47//126 50//126 46//126
f 49//126 48//126 46//126
o cloud_back_mesh.016
v -0.461735 1.013299 -0.692172
v -0.548562 0.786145 -0.366717
v -1.120376 0.557779 -0.607764
v -0.652569 0.491372 -0.889132
v 1.535443 0.804152 -0.472869
v 1.590963 0.801287 -0.793413
v 1.615185 0.602158 -0.695189
v 1.253026 0.629987 -0.203751
v 0.531324 1.110787 -0.606166
v 0.510433 0.580160 0.027107
v 0.593382 0.314885 -0.978198
v 0.442176 0.621857 -0.957774
v 4.470853 1.509284 -0.725755
v 4.287786 0.920063 -0.688841
v 4.500047 1.225042 -0.287510
v 4.160158 1.425571 -0.231712
v 2.294549 1.321996 -0.696745
v 2.414443 1.623536 -0.355024
v 2.517813 1.266452 -0.308122
v 2.390435 1.019382 -0.641956
v 3.624166 1.995686 -1.004948
v 3.505310 0.833726 -0.906554
v 3.501531 1.141912 -0.131939
v 3.489480 1.970374 -0.375608
v 1.688117 -0.653863 -0.322986
v 1.587713 -0.220199 -0.854548
v 1.171800 0.032672 -0.462480
v 1.757029 -0.224570 0.025642
v 3.376725 -0.248805 -0.211052
v 3.320225 -0.051693 0.184383
v 3.006562 0.180942 -0.195079
v 3.212003 0.114185 -0.733654
v 2.619136 -0.784981 -0.129237
v 2.368667 0.049019 -0.960890
v 2.275737 0.298784 -0.097992
v 2.506727 -0.400977 0.329628
vn -0.8037 -0.5917 0.0628
vn -0.7983 -0.5510 0.2430
vn -0.6848 -0.3900 0.6156
vn 0.7578 0.6514 0.0370
vn 0.7572 0.6529 -0.0186
vn 0.7452 0.6343 0.2057
vn 0.1022 -0.7210 -0.6854
vn 0.0982 -0.7193 -0.6878
vn 0.1703 -0.7475 -0.6420
vn -0.2997 0.4904 0.8184
vn -0.3273 0.5120 0.7942
vn -0.2443 0.4456 0.8612
vn -0.3403 -0.6977 0.6304
vn -0.2994 -0.6528 0.6959
vn -0.2433 -0.5876 0.7717
vn -0.2194 0.8861 -0.4083
vn -0.1509 0.8738 -0.4622
vn -0.0173 0.8318 -0.5548
vn 0.0307 0.6547 0.7553
vn -0.0212 0.6795 0.7334
vn 0.1970 0.5578 0.8063
vn 0.0400 0.9786 -0.2019
vn 0.0506 0.9763 -0.2103
vn 0.1192 0.9571 -0.2642
vn 0.4508 -0.7245 0.5214
vn 0.4761 -0.6609 0.5801
vn 0.4945 -0.6031 0.6259
vn 0.3178 -0.6643 -0.6766
vn 0.3199 -0.6647 -0.6751
vn 0.2446 -0.6468 -0.7223
vn -0.7087 -0.6063 -0.3608
vn 0.7360 0.6420 -0.2148
vn 0.0505 -0.6976 -0.7147
vn -0.3784 0.5508 0.7439
vn -0.3923 -0.7505 0.5319
vn -0.3471 0.8902 -0.2951
vn -0.2084 0.7476 0.6306
vn -0.0394 0.9897 -0.1377
vn 0.4188 -0.7874 0.4523
vn 0.4162 -0.6801 -0.6036
vn -0.5082 0.7895 -0.3443
vn -0.7027 0.6704 -0.2384
vn -0.9381 0.3462 -0.0086
vn 0.9438 0.0088 0.3305
vn 0.8509 -0.1991 0.4861
vn 0.7500 -0.3330 0.5715
vn -0.1119 0.8036 0.5846
vn -0.0977 0.7805 0.6175
vn -0.1285 0.8290 0.5443
vn -0.2120 -0.1247 -0.9693
vn 0.0284 -0.9980 -0.0560
vn 0.1334 -0.8918 0.4323
vn -0.0231 0.5242 -0.8513
vn -0.0689 0.4464 -0.8922
vn 0.0133 0.5822 -0.8129
vn -0.1929 -0.9178 0.3471
vn -0.0569 -0.8393 0.5407
vn 0.0318 -0.7621 0.6467
vn 0.3121 -0.2973 -0.9023
vn 0.1490 0.0691 -0.9864
vn 0.1213 0.1253 -0.9847
vn 0.1739 -0.9550 0.2404
vn 0.1806 -0.9551 0.2348
vn 0.1459 -0.9535 0.2637
vn 0.0768 0.6953 -0.7146
vn 0.2322 0.9419 -0.2426
vn 0.0258 0.5805 -0.8138
vn 0.1462 0.7547 0.6396
vn 0.1469 0.7552 0.6388
vn 0.1477 0.7557 0.6381
vn -0.1540 0.8733 -0.4621
vn 0.9659 0.1991 0.1655
vn -0.0885 0.7649 0.6380
vn -0.2168 -0.0419 -0.9753
vn -0.1033 0.3840 -0.9175
vn -0.2661 -0.9372 0.2254
vn 0.3448 -0.3812 -0.8578
vn 0.2105 -0.9549 0.2092
vn 0.2868 0.9571 0.0411
vn 0.1453 0.7541 0.6405
vn 0.9337 0.3257 0.1490
vn 0.9819 0.1820 0.0526
vn 0.5082 0.7376 0.4446
vn -0.8630 -0.1884 0.4689
vn -0.8630 -0.1884 0.4688
vn -0.8629 -0.1885 0.4688
vn 0.2642 -0.1216 -0.9568
vn 0.2648 -0.1225 -0.9565
vn 0.2801 -0.1465 -0.9487
vn 0.0526 0.2205 0.9740
vn 0.1120 0.0882 0.9898
vn 0.0236 0.2824 0.9590
vn 0.5190 0.8192 0.2442
vn 0.4543 0.8378 0.3028
vn 0.3659 0.8520 0.3745
vn 0.0581 -0.8965 0.4391
vn 0.0907 -0.8745 0.4764
vn 0.1535 -0.8242 0.5451
vn -0.1074 0.2408 0.9646
vn -0.0660 0.1851 0.9805
vn -0.1352 0.2778 0.9511
vn -0.0644 -0.8561 0.5128
vn -0.1304 -0.8931 0.4306
vn -0.1807 -0.9142 0.3628
vn -0.3634 0.9195 -0.1499
vn -0.4553 0.8010 -0.3887
vn -0.3074 0.9512 -0.0275
vn -0.2055 -0.0910 -0.9744
vn -0.2321 -0.1635 -0.9588
vn -0.1950 -0.0629 -0.9788
vn 0.9183 -0.3014 -0.2567
vn -0.8630 -0.1882 0.4689
vn 0.2551 -0.1075 -0.9609
vn 0.1549 -0.0123 0.9878
vn 0.6014 0.7827 0.1602
vn -0.0003 -0.9292 0.3697
vn -0.0211 0.1242 0.9920
vn 0.0067 -0.8050 0.5932
vn -0.4826 0.7338 -0.4782
vn -0.2630 -0.2519 -0.9313
usemtl material_21___22299.011
s 1
f 77//147 75//148 78//149
f 81//150 79//151 82//152
f 84//153 75//154 76//155
f 85//156 78//157 86//158
f 83//159 78//160 75//161
f 85//162 76//163 77//164
f 86//165 81//166 85//167
f 81//168 84//169 85//170
f 79//171 86//172 83//173
f 82//174 83//175 84//176
f 77//147 76//177 75//148
f 81//150 80//178 79//151
f 84//153 83//179 75//154
f 85//156 77//180 78//157
f 83//159 86//181 78//160
f 85//162 84//182 76//163
f 86//165 80//183 81//166
f 81//168 82//184 84//169
f 79//171 80//185 86//172
f 82//174 79//186 83//175
usemtl material_21___22299.004
f 54//187 52//188 51//189
f 57//190 55//191 58//192
f 52//193 59//194 51//195
f 62//196 53//197 54//198
f 62//199 51//200 59//201
f 61//202 52//203 53//204
f 56//205 61//206 62//207
f 61//208 58//209 60//210
f 59//211 56//212 62//213
f 58//214 59//215 60//216
f 54//187 53//217 52//188
f 57//190 56//218 55//191
f 52//193 60//219 59//194
f 62//196 61//220 53//197
f 62//199 54//221 51//200
f 61//202 60//222 52//203
f 56//205 57//223 61//206
f 61//208 57//224 58//209
f 59//211 55//225 56//212
f 58//214 55//226 59//215
usemtl material_21___22299.010
f 65//227 63//228 66//229
f 69//230 67//231 70//232
f 72//233 63//234 64//235
f 73//236 66//237 74//238
f 71//239 66//240 63//241
f 73//242 64//243 65//244
f 74//245 69//246 73//247
f 69//248 72//249 73//250
f 71//251 68//252 74//253
f 72//254 67//255 71//256
f 65//227 64//257 63//228
f 69//230 68//258 67//231
f 72//233 71//259 63//234
f 73//236 65//260 66//237
f 71//239 74//261 66//240
f 73//242 72//262 64//243
f 74//245 68//263 69//246
f 69//248 70//264 72//249
f 71//251 67//265 68//252
f 72//254 70//266 67//255
o hell_back_mesh.021
v -0.420001 2.320000 -4.380000
v -0.420001 4.140000 -4.380001
v -0.420000 4.140000 -0.890000
v -0.420001 3.685000 -0.890000
v -0.420001 3.230000 -0.890000
v -0.420001 2.775000 -0.889999
v -0.420001 2.547500 -0.889999
v -0.420000 2.320000 -0.889999
v 2.722549 2.333751 -4.149227
v 2.294600 2.212704 -0.920903
v 2.297834 2.389100 -0.824442
v 2.278526 2.535328 -0.880132
v 2.246697 3.117784 -0.861511
v 2.215330 3.630240 -0.860095
v 2.197030 4.042696 -0.867488
v 2.444030 4.153450 -4.143900
v -0.145909 2.417276 -1.304473
v -0.072501 2.319999 -0.889999
v 0.275000 2.319999 -0.889999
v 0.622500 2.319999 -0.889999
v 0.970000 2.320000 -0.889999
v 1.317501 2.319999 -0.889999
v 1.665001 2.319999 -0.889999
v 1.962502 2.329999 -0.889999
v 2.012501 4.140000 -0.856754
v 1.665001 4.140000 -0.890000
v 1.317501 4.140000 -0.890000
v 0.970000 4.140000 -0.890000
v 0.622500 4.140000 -0.890000
v 0.275000 4.140000 -0.890000
v -0.072501 4.140000 -0.890000
v 1.280141 3.927980 -1.771845
v 1.039124 3.712162 -1.894737
v 0.909832 3.750206 -1.539206
v 1.944041 3.647182 -1.597513
v 2.153801 3.588465 -2.061380
v 1.697920 3.956966 -1.834678
v 0.655992 3.734229 -1.748103
v 0.125793 3.750525 -1.620482
v -0.221423 3.703860 -1.475838
v 2.025594 2.573008 -1.704703
v 2.013136 3.197493 -1.591879
v 2.035718 2.563442 -2.067504
v 1.297565 2.656573 -3.661283
v 1.281405 2.498071 -3.636655
v 0.314481 2.397330 -3.277522
v 0.255583 2.628339 -3.185745
v 1.028218 2.492198 -2.579961
v 1.026985 3.260809 -2.065916
v 0.992680 3.268336 -1.790863
v 0.849240 2.616528 -1.642610
v 0.513111 2.623388 -1.630551
v 0.677231 3.281469 -1.787891
v 0.113236 2.597113 -1.574688
v 0.076972 3.127280 -1.687307
v -0.202056 2.599478 -1.428598
v -0.235632 3.056840 -1.513558
v 0.141017 3.031298 -3.449329
v 1.065659 3.430128 -3.911363
v 2.155180 2.421056 -1.292910
v 1.918095 2.464935 -1.672329
v 1.870143 2.475991 -2.221901
v 1.210700 2.427187 -1.893185
v 1.253708 2.443531 -2.123992
v 0.867201 2.408137 -1.534650
v 0.562132 2.411571 -1.543075
v 0.169382 2.414912 -1.450564
v 1.884640 2.469481 -2.817064
v 2.014171 2.546290 -3.040476
v 2.218297 3.444332 -3.187649
v 1.381790 3.693548 -2.873021
v 0.710579 3.479640 -2.610587
vn 0.4043 -0.2184 0.8882
vn 0.3505 0.0550 0.9350
vn 0.4080 -0.2454 0.8794
vn -0.9562 -0.0226 0.2920
vn -0.9567 -0.0170 0.2906
vn -0.9561 -0.0235 0.2922
vn -0.6435 0.7188 0.2631
vn -0.6467 0.7193 0.2538
vn -0.6957 0.7144 0.0751
vn 0.6556 0.4801 0.5829
vn 0.5813 0.7728 0.2546
vn 0.5426 0.8247 0.1595
vn 0.0178 0.4165 0.9090
vn 0.0053 0.4308 0.9024
vn 0.0410 0.3895 0.9201
vn 0.1208 0.5271 0.8412
vn 0.1692 0.4693 0.8667
vn 0.0757 0.5772 0.8131
vn 0.3404 0.5988 0.7250
vn 0.8472 0.3725 0.3788
vn 0.9181 0.1068 0.3818
vn 0.7889 0.4930 0.3668
vn -0.5148 0.8573 -0.0037
vn -0.2728 0.9261 0.2604
vn -0.6110 0.3173 0.7253
vn -0.2240 0.9542 0.1982
vn -0.4429 0.8960 -0.0325
vn -0.4495 0.8930 -0.0237
vn -0.4403 0.8971 -0.0359
vn 0.3358 0.1111 0.9353
vn -0.9568 -0.0158 0.2903
vn -0.5692 0.6969 0.4363
vn 0.6539 0.3917 0.6473
vn -0.0194 0.4586 0.8884
vn 0.2120 0.4145 0.8850
vn 0.9270 -0.0000 0.3751
vn -0.6278 0.1816 0.7569
vn -0.4517 0.8919 -0.0208
vn 0.4097 0.7899 0.4563
vn 0.6381 0.5401 0.5487
vn 0.0000 0.9735 0.2285
vn -0.0000 -1.0000 -0.0042
vn 0.0013 -1.0000 -0.0019
vn -0.0179 -0.9998 -0.0070
vn -0.0510 0.9976 0.0458
vn -0.0574 0.9978 0.0330
vn -0.0426 0.9971 0.0627
vn 0.0520 0.9827 0.1779
vn 0.0336 0.9800 0.1959
vn 0.0779 0.9853 0.1522
vn 0.0155 0.9892 0.1455
vn 0.0297 0.9880 0.1516
vn 0.0457 0.9863 0.1584
vn 0.0020 0.9907 0.1362
vn 0.0052 0.9905 0.1374
vn 0.0073 0.9904 0.1382
vn 0.0400 0.9934 0.1079
vn 0.0171 0.9922 0.1237
vn 0.0501 0.9936 0.1008
vn -0.0400 0.9875 0.1523
vn -0.0695 0.9891 0.1299
vn -0.0887 0.9894 0.1152
vn -0.0505 0.9815 0.1847
vn -0.0644 0.9836 0.1684
vn -0.0723 0.9846 0.1590
vn -0.1661 0.8325 0.5285
vn -0.6728 0.5088 0.5371
vn -0.9503 -0.1358 0.2801
vn 0.0118 0.9988 0.0481
vn -0.0088 0.9995 0.0294
vn 0.0491 0.9954 0.0820
vn -0.0397 0.9992 -0.0040
vn -0.0451 0.9990 -0.0053
vn -0.1114 0.9936 -0.0212
vn 0.8341 0.0000 0.5516
vn 0.0034 -1.0000 -0.0013
vn -0.3386 -0.9375 -0.0800
vn -0.1225 -0.9920 -0.0297
vn 0.0134 -0.9999 0.0001
vn 0.0000 -1.0000 -0.0000
vn -0.0612 0.9978 0.0254
vn 0.0000 0.9903 0.1389
vn -0.0000 0.9908 0.1355
vn -0.0000 0.9833 0.1822
vn -0.0329 0.9781 0.2053
vn 0.3404 0.8690 0.3592
vn -0.0545 0.9984 -0.0122
vn 0.0300 0.9995 0.0128
vn -0.6766 -0.7036 -0.2169
vn -0.7058 -0.7083 0.0115
vn -0.7638 -0.6437 -0.0481
vn -0.2239 -0.8761 0.4270
vn -0.0613 -0.8675 0.4937
vn -0.2759 -0.8730 0.4021
vn -0.9538 -0.0677 0.2927
vn -0.9535 -0.0659 0.2942
vn -0.9526 -0.0616 0.2979
vn 0.4285 0.2083 0.8792
vn 0.4232 0.2038 0.8828
vn 0.4369 0.2154 0.8733
vn 0.4959 -0.3787 0.7815
vn 0.6364 -0.4861 0.5989
vn 0.7710 -0.5889 0.2424
vn 0.2093 -0.1010 0.9726
vn 0.2114 -0.0986 0.9724
vn 0.2312 -0.0744 0.9701
vn 0.7618 -0.0204 0.6474
vn 0.9631 0.2685 -0.0189
vn 0.9070 0.2743 -0.3195
vn 0.8740 0.2711 -0.4033
vn -0.5765 0.1970 0.7930
vn -0.5618 0.1697 0.8097
vn -0.6088 0.2611 0.7491
vn 0.1942 -0.9557 0.2214
vn 0.3112 -0.9232 0.2253
vn 0.0999 -0.9713 0.2160
vn -0.2831 -0.8358 0.4705
vn -0.0532 -0.8291 0.5565
vn -0.0000 -0.8573 0.5148
vn -0.9545 -0.0713 0.2895
vn 0.4135 0.1955 0.8893
vn 0.0000 -0.0000 1.0000
vn 0.1939 -0.1196 0.9737
vn 0.9595 0.2582 0.1126
vn -0.5293 0.1131 0.8408
vn 0.3749 -0.8991 0.2260
vn -1.0000 0.0000 -0.0000
vn 0.9918 0.0718 0.1057
vn 0.9947 0.0461 0.0918
vn 0.9850 0.1322 0.1109
vn 0.0761 0.0095 -0.9971
vn 0.0789 0.0051 -0.9969
vn 0.0822 -0.0000 -0.9966
vn -0.0012 1.0000 0.0020
vn 0.0000 1.0000 0.0041
vn 0.0148 0.9999 0.0049
vn 0.5333 -0.8152 0.2258
vn 0.1793 -0.8891 0.4212
vn 0.4581 -0.8461 0.2724
vn 0.0586 -0.8969 0.4383
vn 0.0271 -0.8896 0.4559
vn 0.0000 -0.8824 0.4705
vn 0.2334 -0.8303 0.5061
vn 0.0831 -0.8698 0.4863
vn 0.3204 -0.7970 0.5119
vn 0.0758 -0.9765 0.2017
vn 0.0264 -0.9745 0.2228
vn -0.0000 -0.9723 0.2338
vn -0.8396 -0.2994 0.4532
vn -0.6851 -0.5142 0.5160
vn -0.3684 -0.7580 0.5383
vn -0.9995 -0.0150 -0.0275
vn 0.6003 0.4427 -0.6661
vn 0.6029 0.4295 -0.6724
vn 0.5997 0.4455 -0.6647
vn 0.0241 0.2193 0.9754
vn 0.0340 0.2217 0.9745
vn 0.0183 0.2179 0.9758
vn 0.1143 0.2084 0.9713
vn 0.1158 0.2096 0.9709
vn 0.1103 0.2050 0.9725
vn 0.9524 -0.0231 0.3041
vn 0.9515 -0.0190 0.3071
vn 0.9553 -0.0381 0.2930
vn 0.4292 -0.1068 0.8969
vn 0.4639 -0.0834 0.8820
vn 0.3960 -0.1285 0.9092
vn -0.3908 -0.3602 0.8471
vn -0.2277 -0.2509 0.9409
vn -0.5470 -0.4595 0.6998
vn 0.8209 0.1508 -0.5508
vn 0.8449 -0.0531 -0.5323
vn 0.8128 0.1873 -0.5516
vn 0.3111 0.5046 0.8054
vn 0.2961 0.4321 0.8518
vn 0.2823 0.3707 0.8848
vn -0.9556 -0.0097 -0.2944
vn -0.9620 0.0188 -0.2725
vn -0.9083 -0.1445 -0.3925
vn -0.9394 -0.1102 0.3247
vn -0.9461 -0.0861 0.3123
vn -0.9305 -0.1387 0.3391
vn 0.9457 0.0788 0.3153
vn 0.9515 0.0497 0.3038
vn 0.9331 0.1307 0.3350
vn 0.9592 -0.0347 0.2805
vn 0.9774 -0.0544 0.2044
vn 0.9893 -0.0742 0.1254
vn -0.9866 0.1603 -0.0299
vn -0.9858 0.1646 -0.0346
vn -0.9932 0.1143 0.0200
vn -0.2564 -0.9368 0.2380
vn -0.2128 -0.9579 0.1929
vn -0.3916 -0.8832 0.2581
vn 0.6875 -0.7216 -0.0812
vn 0.4008 -0.9048 0.1438
vn 0.4143 -0.8981 0.1473
vn 0.3469 -0.9289 0.1300
vn 0.9859 0.1334 0.1015
vn 0.9960 0.0456 0.0766
vn 0.9955 0.0539 0.0779
vn 0.9847 0.0692 -0.1596
vn 0.9961 0.0397 0.0787
vn 0.0732 0.0141 -0.9972
vn -0.0036 1.0000 0.0014
vn 0.0000 1.0000 0.0000
vn -0.0002 1.0000 0.0041
vn 0.2252 0.9737 0.0335
vn 0.4684 0.8811 0.0651
vn 0.5545 -0.7817 0.2853
vn 0.0755 -0.9003 0.4287
vn 0.0967 -0.9765 0.1926
vn -0.9382 -0.0355 0.3443
vn 0.6042 0.4225 -0.6756
vn 0.0395 0.2230 0.9740
vn 0.1213 0.2142 0.9692
vn 0.9471 0.0000 0.3210
vn 0.4954 -0.0614 0.8665
vn 0.0058 -0.0873 0.9962
vn 0.8453 -0.1026 -0.5243
vn 0.3249 0.5807 0.7465
vn -0.9738 0.1134 -0.1973
vn -0.9527 -0.0591 0.2982
vn 0.9590 -0.0000 0.2835
vn 0.9390 -0.0179 0.3434
vn -0.9746 0.2080 -0.0824
vn -0.4775 -0.8060 0.3499
vn -0.1710 -0.9413 0.2909
vn 0.4566 -0.8755 0.1580
usemtl material_13___22299.019
s 1
f 132//267 130//268 133//269
f 146//270 98//271 127//272
f 147//273 127//274 148//275
f 137//276 149//277 150//278
f 152//279 137//280 138//281
f 153//282 138//283 140//284
f 142//285 153//285 140//285
f 142//286 93//287 103//288
f 129//289 155//289 154//289
f 155//290 131//291 154//292
f 129//293 148//294 127//295
f 132//267 131//296 130//268
f 146//270 97//297 98//271
f 147//273 146//298 127//274
f 137//276 151//299 149//277
f 152//279 151//300 137//280
f 153//282 152//301 138//283
f 142//285 103//285 153//285
f 142//286 92//302 93//287
f 155//290 130//303 131//291
f 129//293 154//304 148//294
usemtl material_14___22299.004
f 103//305 94//306 104//307
f 108//308 107//309 95//310
f 149//311 148//312 150//313
f 103//314 105//315 153//316
f 105//317 152//318 153//319
f 106//320 151//321 152//322
f 151//323 108//324 149//325
f 108//326 147//327 149//328
f 109//329 146//330 147//331
f 146//332 96//333 97//334
f 150//335 154//336 134//337
f 134//338 131//339 132//340
f 103//305 93//341 94//306
f 87//342 95//310 107//309
f 96//343 110//344 95//310
f 109//345 108//308 95//310
f 107//309 106//346 87//342
f 105//346 104//346 87//342
f 94//346 87//342 104//346
f 110//344 109//345 95//310
f 106//346 105//346 87//342
f 149//311 147//347 148//312
f 103//314 104//307 105//315
f 105//317 106//348 152//318
f 106//320 107//349 151//321
f 151//323 107//349 108//324
f 108//326 109//350 147//327
f 109//329 110//351 146//330
f 146//332 110//352 96//333
f 150//335 148//353 154//336
f 134//338 154//354 131//339
usemtl material_16___22299.016
f 122//355 121//356 123//357
f 120//358 115//359 124//360
f 128//361 98//362 99//363
f 143//364 140//365 141//366
f 117//367 90//368 126//369
f 125//370 139//371 124//372
f 136//373 137//373 150//373
f 135//374 150//375 134//376
f 156//377 130//378 155//379
f 118//380 157//381 123//382
f 112//383 123//357 121//356
f 121//356 111//384 112//383
f 120//358 114//385 115//359
f 128//361 127//386 98//362
f 143//364 142//387 140//365
f 117//367 89//388 90//368
f 125//370 141//389 139//371
f 135//374 136//390 150//375
f 156//377 145//391 130//378
f 118//380 158//392 157//381
usemtl material_17___22299.004
f 91//393 88//393 87//393
f 99//394 98//395 95//396
f 102//397 87//398 88//399
f 114//400 113//401 102//402
f 118//403 113//404 120//405
f 125//406 115//407 116//408
f 125//409 117//410 126//411
f 118//412 112//413 113//414
f 121//415 101//416 111//417
f 129//418 127//418 128//418
f 134//419 133//420 135//421
f 139//422 137//423 136//424
f 141//425 138//426 139//427
f 126//428 91//429 143//430
f 126//431 141//432 125//433
f 124//434 136//435 120//436
f 135//437 144//438 119//439
f 144//440 130//441 145//442
f 122//443 128//444 121//445
f 128//446 100//447 121//448
f 143//449 92//450 142//451
f 119//452 136//453 135//454
f 122//455 155//456 129//457
f 157//458 156//459 122//460
f 119//461 158//461 118//461
f 158//462 145//463 157//464
f 87//393 94//393 93//393
f 87//393 93//393 92//393
f 89//393 88//393 90//393
f 90//393 88//393 91//393
f 87//393 92//393 91//393
f 95//396 102//465 99//394
f 101//466 100//467 102//465
f 98//395 97//468 96//469
f 100//467 99//394 102//465
f 96//469 95//396 98//395
f 102//397 95//470 87//398
f 88//471 89//472 117//472
f 117//472 116//472 88//471
f 115//472 114//400 88//471
f 112//473 111//474 102//402
f 111//474 101//475 102//402
f 102//402 88//471 114//400
f 88//471 116//472 115//472
f 113//401 112//473 102//402
f 114//385 120//405 113//404
f 119//476 118//403 120//405
f 125//406 124//477 115//407
f 125//409 116//408 117//410
f 118//412 123//478 112//413
f 121//415 100//479 101//416
f 134//419 132//480 133//420
f 139//422 138//481 137//423
f 141//425 140//482 138//426
f 126//428 90//483 91//429
f 126//431 143//484 141//432
f 124//434 139//485 136//435
f 135//437 133//486 144//438
f 144//440 133//487 130//441
f 122//443 129//488 128//444
f 128//446 99//489 100//447
f 143//449 91//490 92//450
f 119//452 120//491 136//453
f 122//455 156//492 155//456
f 122//460 123//493 157//458
f 157//458 145//494 156//459
f 119//461 144//461 158//461
f 158//462 144//495 145//463
o mesh_721029956_mesh.020
v -4.420000 3.167500 -0.900000
v -4.350000 3.070000 -0.830000
v -4.349999 3.070000 -4.730000
v -1.679999 3.069999 -4.729999
v -1.680000 3.070000 -0.830000
v -1.630000 3.107500 -0.860000
v -4.016250 3.070000 -0.830000
v -3.682500 3.070000 -0.830000
v -3.348750 3.070000 -0.830000
v -3.015000 3.070000 -0.830000
v -2.681250 3.070000 -0.830000
v -2.347500 3.070000 -0.830000
v -2.013750 3.070000 -0.830000
v -4.349999 4.940001 -0.830000
v -4.349998 4.940000 -4.730000
v -1.679999 4.940000 -4.730000
v -1.680000 4.940000 -0.830000
v -2.013750 4.940000 -0.830000
v -2.347500 4.940000 -0.830000
v -2.681250 4.940001 -0.830000
v -3.015000 4.940001 -0.830000
v -3.348750 4.940001 -0.830000
v -3.682500 4.940001 -0.830000
v -4.016250 4.940001 -0.830000
v -3.321249 4.432500 -2.930000
v -2.113750 4.612501 -1.120000
v -3.348750 4.472500 -1.490000
v -3.682500 4.472500 -1.260000
v -4.016250 4.472501 -1.260000
v -2.177499 4.452500 -3.000000
v -1.680000 4.472500 -0.830000
v -1.680000 4.005000 -0.830000
v -1.540000 3.231250 -0.900000
v -1.863750 4.055000 -1.180000
v -1.863750 3.361250 -1.450000
v -2.107500 3.361250 -1.650000
v -2.177499 3.985000 -3.000000
v -2.721250 3.371250 -1.680000
v -3.321249 3.965000 -2.930000
v -3.055000 3.384189 -1.737709
v -3.388750 3.384189 -1.737709
v -3.348750 4.067939 -1.467709
v -3.682500 4.005001 -1.260000
v -4.036250 3.261250 -1.380000
v -4.156250 3.895000 -1.230000
v -4.210000 4.372500 -1.120000
v -3.065000 4.512500 -1.790000
v -4.300000 3.291250 -1.200000
v -3.722500 3.207500 -1.300000
v -3.428750 3.237500 -1.540000
v -3.095000 3.237500 -1.540000
v -2.651250 3.257500 -1.510000
v -2.317500 3.257500 -1.510000
v -1.913750 3.277500 -1.380000
v -4.066250 3.157500 -1.260000
v -3.762500 3.371251 -1.470000
v -2.975000 4.067939 -1.697709
vn 0.4179 0.7687 0.4842
vn -0.0351 0.7603 0.6486
vn 0.4032 0.6940 0.5965
vn -0.0000 0.8031 0.5958
vn -0.0676 0.8161 0.5739
vn 0.0000 0.8311 0.5561
vn -0.4430 0.7157 0.5399
vn -0.6126 0.6085 0.5044
vn 0.6207 0.5096 0.5958
vn 0.4046 0.7044 0.5833
vn -0.0759 0.8081 0.5842
vn -0.1745 0.8981 0.4038
vn -0.4915 0.7123 0.5011
vn -0.0563 0.7124 0.6995
vn -0.0151 0.8141 0.5806
vn 0.0000 0.5832 0.8123
vn 0.0000 0.9598 0.2808
vn 0.0000 0.9733 0.2296
vn 0.0000 0.9640 0.2658
vn 0.0000 0.9356 0.3530
vn 0.0000 0.6247 0.7809
vn 0.1223 0.9553 0.2691
vn 0.2028 0.9639 0.1726
vn -0.0596 0.9700 0.2356
vn -0.1305 0.9572 0.2582
vn -0.0649 0.9375 0.3419
vn -0.1166 0.9705 0.2110
vn -0.8123 -0.5832 -0.0000
vn 0.6000 -0.8000 0.0000
vn -0.0000 -1.0000 0.0000
vn 0.0000 1.0000 -0.0000
vn 0.0000 -0.0000 -1.0000
vn -0.0000 -0.9720 0.2349
vn -0.0000 -0.6629 0.7487
vn 0.0000 -0.8160 0.5780
vn -0.0000 -0.6770 0.7360
vn 0.0277 -0.9739 0.2252
vn 0.0085 -0.9752 0.2211
vn 0.0309 -0.9737 0.2259
vn -0.0000 -0.0000 1.0000
vn -0.8792 -0.1983 0.4333
vn -0.6074 -0.2881 0.7403
vn 0.0102 0.9051 0.4250
vn -0.0423 0.8944 0.4452
vn 0.0000 -0.3673 0.9301
vn 0.5425 -0.3358 0.7700
vn 0.1101 -0.2091 0.9717
vn 0.6187 -0.1096 0.7780
vn -0.5558 0.0000 0.8313
vn -0.9994 0.0000 0.0339
vn 0.0611 0.0000 0.9981
vn 0.9757 0.0000 -0.2193
vn 0.7235 0.0380 0.6893
vn 0.5674 -0.0000 0.8234
vn 0.0000 -0.4550 0.8905
vn 0.5584 -0.3236 0.7639
vn 0.5543 -0.0909 0.8273
vn -0.9998 0.0000 -0.0183
vn -0.9992 0.0395 -0.0000
vn 0.8536 -0.0542 0.5181
vn 0.8207 -0.0389 0.5701
vn 0.9347 -0.2082 0.2880
vn 0.8080 -0.5892 -0.0047
vn 0.9824 0.1817 -0.0436
vn 1.0000 0.0000 0.0000
vn 0.4524 -0.6038 0.6564
vn 0.6611 -0.5079 0.5522
vn 0.8846 0.4072 -0.2274
vn 0.9603 -0.0970 -0.2617
vn 0.9510 0.1347 -0.2785
vn 0.5214 0.0469 0.8520
vn 0.4126 -0.3330 0.8479
vn -0.7767 -0.6248 0.0795
vn -0.9602 0.2313 0.1566
vn -0.8656 -0.1816 0.4666
vn -0.8295 -0.4125 0.3766
vn -0.8922 -0.4184 0.1699
vn -0.5940 -0.4240 0.6837
vn 0.4721 -0.8142 0.3380
vn 0.5209 -0.1105 0.8464
vn 0.5043 0.2722 0.8195
vn -0.0057 0.9077 0.4197
vn 0.0542 0.0387 0.9978
vn -0.0000 -0.9757 0.2192
usemtl material_13___22299.004
s 1
f 202//496 206//496 159//496
f 202//497 213//497 207//497
f 214//498 208//498 199//498
f 199//499 209//499 198//499
f 198//500 210//500 196//500
f 196//501 210//501 211//501
f 194//502 212//502 193//502
f 193//503 164//503 191//503
f 159//504 213//504 202//504
f 214//505 207//505 208//505
f 198//506 209//506 210//506
f 194//507 211//507 212//507
f 193//508 212//508 164//508
f 207//509 214//509 202//509
f 211//510 194//510 196//510
f 199//499 208//499 209//499
usemtl material_14___22299.001
f 165//511 159//511 160//511
f 165//512 166//512 207//512
f 166//513 167//513 208//513
f 167//513 209//513 208//513
f 168//514 169//514 210//514
f 210//514 170//514 211//514
f 170//515 171//515 212//515
f 171//516 163//516 164//516
f 208//517 207//517 166//517
f 165//518 213//518 159//518
f 210//519 209//519 168//519
f 212//520 211//520 170//520
f 164//521 212//521 171//521
f 207//522 213//522 165//522
f 167//513 168//513 209//513
f 210//514 169//514 170//514
usemtl material_17___22299.014
f 161//523 160//523 159//523
f 164//524 163//524 162//524
f 162//525 168//525 161//525
f 179//526 178//526 174//526
f 174//527 161//527 173//527
f 183//528 178//528 179//528
f 184//529 176//529 177//529
f 185//530 180//530 181//530
f 185//530 179//530 180//530
f 186//531 182//531 187//531
f 188//532 178//533 183//534
f 189//535 175//535 176//535
f 192//536 191//536 190//536
f 194//537 193//537 192//537
f 197//538 196//538 195//538
f 198//539 196//539 197//539
f 200//540 199//540 198//540
f 201//541 199//541 200//541
f 203//542 202//542 201//542
f 203//543 187//543 204//543
f 184//544 190//544 189//544
f 188//545 195//545 184//545
f 183//546 195//546 188//546
f 205//547 197//547 183//547
f 185//548 200//548 205//548
f 186//549 201//549 185//549
f 187//535 201//535 186//535
f 182//550 172//550 204//550
f 201//551 214//551 199//551
f 206//552 202//552 203//552
f 173//553 161//553 159//553
f 172//554 173//554 159//554
f 204//555 172//555 159//555
f 203//556 204//556 159//556
f 206//557 203//557 159//557
f 191//558 164//558 162//558
f 190//559 191//559 162//559
f 189//560 190//560 162//560
f 175//560 189//560 162//560
f 174//560 175//560 162//560
f 181//561 186//561 185//561
f 204//562 187//562 182//562
f 179//563 205//563 183//563
f 197//564 215//564 198//564
f 205//565 215//565 197//565
f 201//566 200//566 185//566
f 202//567 214//567 201//567
f 177//568 188//568 184//568
f 192//569 195//569 194//569
f 192//570 193//570 191//570
f 184//571 192//571 190//571
f 195//572 192//572 184//572
f 176//573 184//573 189//573
f 185//574 205//574 179//574
f 198//575 215//575 200//575
f 200//576 215//576 205//576
f 196//577 194//577 195//577
f 187//578 203//578 201//578
f 160//525 161//525 165//525
f 162//525 163//525 171//525
f 170//525 169//525 162//525
f 162//525 171//525 170//525
f 165//525 161//525 166//525
f 168//525 167//525 161//525
f 166//525 161//525 167//525
f 162//525 169//525 168//525
f 172//526 182//526 173//526
f 181//526 180//526 173//526
f 182//526 181//526 173//526
f 174//526 173//526 179//526
f 176//526 175//526 174//526
f 177//526 176//526 174//526
f 173//526 180//526 179//526
f 178//526 177//526 174//526
f 174//527 162//527 161//527
f 186//531 181//531 182//531
f 188//532 177//579 178//533
f 183//546 197//546 195//546
o mesh_130435478_mesh.005
v -4.023890 1.019423 -0.301759
v -3.981945 1.129603 -2.450000
v -3.981945 2.779603 -2.450000
v -3.981945 2.779603 -0.800001
v -3.981945 2.367104 -0.800001
v -3.981945 1.954603 -0.800000
v -3.981945 1.542103 -0.800000
v -3.981945 1.331823 -0.800000
v -1.340542 1.066671 -0.277182
v -1.461945 1.367462 -0.799999
v -1.461945 1.542104 -0.799999
v -1.461945 1.954603 -0.799999
v -1.461945 2.367103 -0.799999
v -1.461945 2.779603 -0.799999
v -1.461945 2.779603 -2.449999
v -1.461945 1.129603 -2.449999
v -3.313671 1.124160 -0.324504
v -2.379647 1.050403 -0.455507
v -1.801823 0.980000 -0.348598
v -1.775858 2.903028 -0.808320
v -2.605800 2.978971 -0.781736
v -3.340644 2.879427 -0.750075
v -3.387183 1.366970 -0.993381
v -1.827600 2.542482 -1.040085
v -2.635680 2.655124 -1.310347
v -3.447434 2.569551 -1.147730
v -1.926468 1.612881 -1.347363
v -1.902852 2.191126 -1.289542
v -2.743108 1.583735 -1.417663
v -2.701302 2.224503 -1.777392
v -3.425192 1.458352 -1.102563
v -3.426610 2.131819 -1.415082
v -1.880408 1.361615 -1.029824
v -2.624170 1.387490 -1.142411
vn -0.5724 0.5224 0.6320
vn -0.5381 0.2073 0.8170
vn -0.5678 0.6035 0.5599
vn -0.0768 0.7904 0.6078
vn -0.0709 0.7822 0.6190
vn -0.0801 0.7949 0.6014
vn 0.1001 0.7936 0.6002
vn 0.1006 0.8239 0.5577
vn 0.1007 0.8302 0.5484
vn 0.2302 0.6714 0.7044
vn 0.4532 0.1183 0.8835
vn 0.1499 0.7832 0.6034
vn -0.4814 0.0000 0.8765
vn -0.0676 0.7776 0.6251
vn 0.0997 0.7798 0.6180
vn 0.4775 0.0000 0.8786
vn -0.0248 0.9029 0.4291
vn -0.0282 0.9009 0.4331
vn -0.1081 0.8463 0.5216
vn 0.0846 0.9255 0.3693
vn 0.0918 0.9227 0.3744
vn 0.0405 0.9406 0.3370
vn -0.0083 0.8822 0.4708
vn -0.0151 0.8846 0.4662
vn -0.0372 0.8918 0.4509
vn -0.2531 0.8200 0.5133
vn -0.2665 0.8213 0.5043
vn -0.2825 0.8226 0.4934
vn 0.0535 0.9405 0.3355
vn 0.1278 0.9076 0.3999
vn 0.0162 0.8731 0.4872
vn -0.2350 0.8179 0.5251
vn -0.1277 -0.6638 0.7369
vn -0.2107 -0.7481 0.6293
vn -0.2843 -0.8103 0.5125
vn 0.3390 0.4188 0.8424
vn 0.3406 0.4207 0.8408
vn 0.3557 0.4398 0.8247
vn 0.2739 -0.5769 0.7695
vn 0.4100 -0.3507 0.8420
vn 0.5453 0.0000 0.8382
vn -0.6905 -0.2021 0.6945
vn -0.7143 -0.1254 0.6885
vn -0.6263 -0.3576 0.6927
vn -0.0223 -0.5383 0.8424
vn 0.3231 0.3989 0.8582
vn 0.0773 -0.7964 0.5998
vn -0.7431 -0.0000 0.6692
vn -1.0000 0.0000 -0.0000
vn -0.9999 0.0120 -0.0015
vn 0.9994 0.0347 -0.0050
vn 1.0000 0.0000 0.0000
vn 0.9828 0.1828 -0.0263
vn 0.0082 -0.9988 -0.0477
vn -0.0627 -0.9972 -0.0399
vn 0.0119 -0.9996 -0.0272
vn 0.2122 0.9767 -0.0329
vn 0.0704 0.9936 -0.0884
vn -0.0130 0.9976 -0.0683
vn 0.0000 0.0000 -1.0000
vn -0.4191 -0.2402 0.8756
vn -0.4077 -0.2582 0.8759
vn -0.2206 -0.5048 0.8346
vn 0.1608 -0.8297 0.5345
vn 0.1739 -0.8191 0.5467
vn 0.1981 -0.7982 0.5688
vn -0.7551 -0.0231 0.6552
vn -0.7579 -0.0145 0.6522
vn -0.7510 -0.0353 0.6594
vn -0.3375 0.2771 0.8996
vn -0.2663 0.1682 0.9491
vn -0.4490 0.4595 0.7663
vn 0.6649 -0.2606 0.7000
vn 0.7098 -0.1331 0.6917
vn 0.7422 -0.0000 0.6701
vn 0.2927 -0.5926 0.7505
vn 0.3320 -0.6404 0.6925
vn 0.2205 -0.5007 0.8370
vn -0.3997 -0.6001 0.6929
vn -0.3691 -0.5494 0.7496
vn -0.3368 -0.4961 0.8003
vn 0.6111 0.2224 0.7597
vn 0.5805 0.1651 0.7974
vn -0.9978 0.0662 -0.0081
vn -0.9937 0.1116 -0.0137
vn 0.9507 0.3068 -0.0442
vn 0.1442 -0.9884 -0.0479
vn 0.0186 -0.9998 -0.0084
vn 0.1904 -0.9809 -0.0390
vn 0.0439 -0.9970 -0.0639
vn -0.1538 0.9881 -0.0000
vn -0.1418 0.9899 -0.0047
vn -0.0639 0.9956 -0.0683
vn 0.3659 0.9306 -0.0000
vn -0.5489 0.0000 0.8359
vn 0.1369 -0.8481 0.5118
vn -0.7624 0.0000 0.6471
vn -0.0820 -0.0958 0.9920
vn 0.6014 -0.3954 0.6942
vn 0.3872 -0.7043 0.5950
vn -0.4213 -0.6365 0.6460
vn 0.6560 0.3188 0.6841
usemtl material_13___22299.020
s 1
f 248//580 226//581 242//582
f 249//583 242//584 244//585
f 246//586 249//587 244//588
f 246//589 223//590 238//591
f 248//580 225//592 226//581
f 249//583 248//593 242//584
f 246//586 238//594 249//587
f 246//589 222//595 223//590
usemtl material_14___22299.017
f 232//596 223//597 216//598
f 232//599 249//600 238//601
f 233//602 248//603 249//604
f 234//605 225//606 248//607
f 232//596 238//608 223//597
f 232//599 233//609 249//600
f 233//602 234//610 248//603
f 234//605 224//611 225//606
usemtl material_16___22299.020
f 239//612 236//613 240//614
f 247//615 244//616 245//617
f 241//618 219//619 220//620
f 243//621 228//622 239//623
f 239//612 235//624 236//613
f 247//615 246//625 244//616
f 241//618 237//626 219//619
f 243//621 227//627 228//622
usemtl material_17___22299.019
f 221//628 218//628 217//629
f 231//630 226//631 225//632
f 231//633 233//634 217//635
f 235//636 230//637 236//638
f 218//639 231//639 217//639
f 239//640 229//641 235//642
f 240//643 237//644 241//645
f 242//646 227//647 243//648
f 244//649 243//650 245//651
f 247//652 220//653 221//654
f 247//655 240//656 241//657
f 240//658 243//659 239//660
f 246//661 221//662 222//595
f 223//663 222//628 217//629
f 220//628 219//628 218//628
f 222//628 221//628 217//629
f 217//629 216//664 223//663
f 220//628 218//628 221//628
f 231//630 230//631 227//631
f 229//631 228//631 230//631
f 227//631 226//631 231//630
f 225//632 224//665 231//630
f 230//631 228//631 227//631
f 216//666 217//635 232//667
f 231//633 224//668 234//669
f 233//634 232//667 217//635
f 231//633 234//669 233//634
f 219//670 237//671 218//672
f 235//636 229//673 230//637
f 237//671 236//638 218//672
f 230//637 218//672 236//638
f 218//639 230//639 231//639
f 239//640 228//674 229//641
f 240//643 236//675 237//644
f 242//646 226//676 227//647
f 244//649 242//677 243//650
f 247//652 241//678 220//653
f 247//655 245//679 240//656
f 240//658 245//680 243//659
f 246//661 247//681 221//662
o plant_mesh.006
v 0.937536 2.981446 0.227724
v 0.940458 3.002392 0.195489
v 0.936108 2.986198 0.229300
v 0.968070 3.008355 0.212161
v 0.952027 3.035951 0.200418
v 0.939911 3.010563 0.221496
v 0.903717 3.019880 0.216253
v 0.939122 3.005429 0.221147
v 0.908606 3.019883 0.248687
v 0.896568 3.049001 0.235880
v 0.936447 2.980191 0.229850
v 0.917589 2.993190 0.199854
v 0.936938 2.975341 0.228021
v 0.894961 2.985550 0.222338
v 0.893911 3.017632 0.211093
v 0.930862 2.961869 0.226414
v 0.961354 2.976713 0.208077
v 0.929960 2.966992 0.226630
v 0.968292 2.979554 0.240010
v 0.973339 3.007679 0.221562
v 0.934725 2.960633 0.212817
v 0.944725 2.960633 0.222817
v 0.944725 3.040633 0.222817
v 0.934725 3.040633 0.212817
v 0.924724 2.960633 0.222817
v 0.924724 3.040633 0.222817
v 0.934724 3.040633 0.232817
v 0.934724 2.960633 0.232817
vn 0.8647 0.2515 -0.4347
vn -0.1525 -0.8788 -0.4521
vn -0.1278 0.3243 0.9373
vn -0.2112 -0.3636 0.9073
vn 0.6851 0.7186 -0.1193
vn -0.6292 -0.2753 -0.7268
vn -0.9514 -0.2117 -0.2238
vn 0.4437 -0.7693 -0.4597
vn 0.1505 0.4599 0.8751
vn 0.5317 -0.1184 0.8386
vn -0.9464 0.3215 0.0322
vn 0.5249 -0.0562 -0.8493
vn 0.1542 0.0434 -0.9871
vn -0.3841 -0.9215 0.0580
vn 0.6443 0.5150 0.5653
vn 0.6231 -0.1480 0.7680
vn 0.2615 0.5828 -0.7694
vn -0.9353 -0.3246 0.1410
vn -0.4964 -0.0509 -0.8666
vn 0.4312 -0.9022 -0.0134
vn -0.4300 0.5479 0.7176
vn -0.3008 -0.0931 0.9491
vn -0.5498 0.5032 -0.6667
vn 0.9412 -0.2864 -0.1790
vn 0.7071 -0.0000 -0.7071
vn -0.7071 0.0000 -0.7071
vn -0.7071 0.0000 0.7071
vn 0.0000 -1.0000 0.0000
vn 0.0000 1.0000 0.0000
vn 0.7071 0.0000 0.7071
usemtl material_10___22299.022
s 1
f 262//682 261//682 260//682
f 262//683 263//683 261//683
f 260//684 264//684 263//684
f 262//685 260//685 263//685
f 260//686 261//686 264//686
f 263//687 264//687 261//687
usemtl material_10___22299.009
f 252//688 251//688 250//688
f 251//689 253//689 250//689
f 253//690 254//690 252//690
f 253//691 252//691 250//691
f 254//692 251//692 252//692
f 251//693 254//693 253//693
usemtl material_10___22299.019
f 257//694 256//694 255//694
f 257//695 258//695 256//695
f 255//696 259//696 258//696
f 257//697 255//697 258//697
f 255//698 256//698 259//698
f 258//699 259//699 256//699
usemtl material_10___22299.006
f 267//700 266//700 265//700
f 266//701 268//701 265//701
f 268//702 269//702 267//702
f 268//703 267//703 265//703
f 269//704 266//704 267//704
f 266//705 269//705 268//705
usemtl material_10___22299.014
f 272//706 270//706 273//706
f 275//707 270//707 274//707
f 276//708 274//708 277//708
f 270//709 277//709 274//709
f 276//710 273//710 275//710
f 271//711 276//711 277//711
f 272//706 271//706 270//706
f 275//707 273//707 270//707
f 276//708 275//708 274//708
f 270//709 271//709 277//709
f 276//710 272//710 273//710
f 271//711 272//711 276//711
o mesh_748182660_mesh.009
v 0.654186 3.280633 0.102817
v 0.654186 3.440633 0.102817
v 0.654186 3.440633 0.342817
v 0.654186 3.280633 0.342817
v 0.814186 3.280633 0.102817
v 0.814186 3.280633 0.342817
v 0.814186 3.440633 0.342817
v 0.814187 3.440633 0.102817
vn -1.0000 0.0000 0.0000
vn 1.0000 -0.0000 0.0000
vn 0.0000 -0.0000 -1.0000
vn -0.0000 0.0000 1.0000
vn 0.0000 -1.0000 0.0000
vn 0.0000 1.0000 0.0000
usemtl material_21___22299.012
s 1
f 280//712 278//712 281//712
f 284//713 282//713 285//713
f 279//714 282//714 278//714
f 284//715 281//715 283//715
f 282//716 281//716 278//716
f 284//717 279//717 280//717
f 280//712 279//712 278//712
f 284//713 283//713 282//713
f 279//714 285//714 282//714
f 284//715 280//715 281//715
f 282//716 283//716 281//716
f 284//717 285//717 279//717
o cloud_1x1_mesh.008
v 0.894187 3.290633 0.102817
v 0.901707 3.280633 0.102817
v 0.970895 3.280633 0.102817
v 0.974187 3.290633 0.102817
v 0.974187 3.350633 0.102817
v 0.968057 3.360633 0.102817
v 0.904187 3.360633 0.102817
v 0.894187 3.353628 0.102817
v 0.906106 3.332458 0.337257
v 0.922563 3.347967 0.336598
v 0.938118 3.304343 0.343966
v 0.894187 3.290633 0.319432
v 0.975290 3.351007 0.313897
v 0.969379 3.360633 0.315899
v 0.904445 3.359770 0.313859
v 0.894187 3.355033 0.320260
v 0.958559 3.316032 0.345106
v 0.973671 3.290778 0.315911
v 0.969639 3.281371 0.316921
v 0.915706 3.294305 0.336731
v 0.903347 3.282166 0.322751
v 0.957421 3.337583 0.340839
v 0.951074 3.352535 0.337483
vn 0.0000 -0.0000 -1.0000
vn -0.0880 0.1353 0.9869
vn -0.7992 -0.6011 0.0000
vn 0.8516 0.5241 -0.0053
vn 0.8523 0.5230 -0.0054
vn 0.8519 0.5237 -0.0053
vn -0.0109 0.9999 0.0008
vn -0.0025 1.0000 0.0033
vn -0.0000 1.0000 0.0041
vn -0.4222 0.9065 -0.0059
vn -1.0000 -0.0000 0.0000
vn 0.8851 -0.0082 0.4653
vn 0.5733 -0.1595 0.8037
vn 0.0462 -0.7741 0.6313
vn 0.8526 0.5226 -0.0054
vn -0.5737 0.8190 0.0041
vn -0.0267 0.8784 0.4772
vn 1.0000 0.0000 0.0024
vn -0.8232 -0.0073 0.5676
vn -0.0022 -1.0000 0.0041
vn -0.0092 -0.9999 0.0064
vn -0.0114 -0.9999 0.0071
vn 0.6131 0.4116 0.6744
vn -0.0616 0.1932 0.9792
vn -0.0614 0.1937 0.9791
vn -0.0619 0.1922 0.9794
vn 0.7147 0.3084 0.6277
vn 0.9996 -0.0271 -0.0052
vn -0.0624 0.1907 0.9797
vn 0.7840 0.1602 0.5998
vn -0.1609 0.9612 0.2241
vn 0.9499 -0.3127 0.0025
vn 0.9194 -0.3933 0.0068
vn -0.1246 0.1219 0.9847
vn 0.3198 -0.6284 0.7091
vn 0.0890 -0.7056 0.7030
vn -0.5633 -0.3090 0.7663
vn -0.6013 -0.1621 0.7824
vn -0.2728 -0.0818 0.9586
vn -0.0790 0.8577 0.5081
vn -0.3691 0.4267 0.8256
vn -0.6807 -0.7325 0.0102
vn -0.0133 0.9999 0.0001
vn 0.0000 -1.0000 0.0034
usemtl material_21___22299.014
s 1
f 289//718 287//718 286//718
f 296//719 295//719 294//719
f 287//720 297//720 286//720
f 299//721 298//722 291//723
f 300//724 291//725 292//726
f 301//727 300//727 293//727
f 297//728 293//728 286//728
f 303//729 298//729 302//729
f 304//730 303//730 296//730
f 306//731 304//731 305//731
f 298//722 290//732 291//723
f 300//733 292//733 293//733
f 300//734 295//734 299//734
f 303//735 289//735 290//735
f 297//736 294//736 301//736
f 287//737 304//738 306//739
f 299//740 308//740 307//740
f 307//741 308//742 295//743
f 299//744 307//744 298//744
f 290//745 298//745 303//745
f 302//746 307//741 295//743
f 298//747 307//747 302//747
f 295//748 308//748 299//748
f 288//749 289//749 303//749
f 304//750 288//750 303//750
f 296//751 302//751 295//751
f 303//752 302//752 296//752
f 304//753 296//753 305//753
f 306//754 305//754 297//754
f 297//755 305//755 294//755
f 294//756 305//756 296//756
f 301//757 295//757 300//757
f 301//758 294//758 295//758
f 287//759 306//759 297//759
f 286//718 293//718 292//718
f 292//718 291//718 290//718
f 290//718 289//718 286//718
f 288//718 287//718 289//718
f 286//718 292//718 290//718
f 300//724 299//760 291//725
f 297//728 301//728 293//728
f 287//737 288//761 304//738
o mesh_1895889062_mesh.017
v 1.054187 3.280633 0.102817
v 1.054187 3.360633 0.102817
v 1.054187 3.360633 0.342817
v 1.054187 3.280633 0.342817
v 1.374187 3.280633 0.102817
v 1.374187 3.280633 0.342817
v 1.374187 3.360633 0.342817
v 1.374187 3.360633 0.102817
vn -1.0000 0.0000 0.0000
vn 1.0000 0.0000 0.0000
vn -0.0000 -0.0000 -1.0000
vn -0.0000 0.0000 1.0000
vn 0.0000 -1.0000 -0.0000
vn 0.0000 1.0000 0.0000
usemtl material_21___22299.005
s 1
f 311//762 309//762 312//762
f 315//763 313//763 316//763
f 316//764 309//764 310//764
f 315//765 312//765 314//765
f 314//766 309//766 313//766
f 315//767 310//767 311//767
f 311//762 310//762 309//762
f 315//763 314//763 313//763
f 316//764 313//764 309//764
f 315//765 311//765 312//765
f 314//766 312//766 309//766
f 315//767 316//767 310//767
o mesh_2110353552_mesh.023
v 0.874187 3.740633 0.472817
v 0.874187 3.820633 0.472817
v 0.874187 3.820633 0.552817
v 0.874187 3.740633 0.552817
v 0.954187 3.740633 0.472817
v 0.954187 3.740633 0.552817
v 0.954187 3.820633 0.552817
v 0.954187 3.820633 0.472817
vn -1.0000 -0.0000 0.0000
vn 1.0000 -0.0000 0.0000
vn 0.0000 0.0000 -1.0000
vn 0.0000 0.0000 1.0000
vn 0.0000 -1.0000 0.0000
vn 0.0000 1.0000 0.0000
usemtl material_21___22299.007
s 1
f 319//768 317//768 320//768
f 323//769 321//769 324//769
f 324//770 317//770 318//770
f 323//771 320//771 322//771
f 322//772 317//772 321//772
f 319//773 324//773 318//773
f 319//768 318//768 317//768
f 323//769 322//769 321//769
f 324//770 321//770 317//770
f 323//771 319//771 320//771
f 322//772 320//772 317//772
f 319//773 323//773 324//773
o mesh_885631330_mesh.015
v 0.574186 2.880633 0.142817
v 0.574186 3.120633 0.142816
v 0.574186 3.120633 0.314737
v 0.574186 2.880633 0.312406
v 0.814186 2.880633 0.142817
v 0.814186 2.880633 0.316919
v 0.814186 3.120633 0.318928
v 0.814186 3.120633 0.142817
v 0.596739 2.939958 0.346310
v 0.658224 3.080774 0.349311
v 0.681489 2.984792 0.316093
v 0.814186 3.120633 0.319434
v 0.748505 3.120633 0.318148
v 0.647549 3.120633 0.316172
v 0.725108 3.091055 0.355048
v 0.793539 2.959459 0.341626
v 0.737571 2.930441 0.353154
v 0.779188 3.063204 0.339289
v 0.604895 3.033611 0.348855
vn -1.0000 -0.0000 0.0000
vn 1.0000 -0.0000 0.0000
vn 0.0000 -0.0000 -1.0000
vn 0.4225 -0.2033 0.8833
vn 0.0000 -1.0000 0.0000
vn 0.0000 1.0000 -0.0000
vn -0.0121 0.7840 0.6207
vn 0.9901 -0.1156 0.0800
vn 0.7592 -0.0056 0.6508
vn 0.7587 -0.0055 0.6514
vn -0.8282 -0.0054 0.5604
vn -0.0151 0.6368 0.7709
vn -0.5871 -0.0551 0.8076
vn 0.1998 0.0039 0.9798
vn 0.3956 0.0753 0.9153
vn 0.3095 0.0642 0.9487
vn 0.3341 0.1196 0.9349
vn -0.6893 0.0404 0.7234
vn 0.0168 -0.0286 0.9994
vn -0.2513 0.2752 0.9280
vn -0.0296 -0.3333 0.9424
vn -0.1599 0.6054 0.7797
vn 0.3016 -0.2123 0.9295
vn 0.5255 -0.5639 0.6371
vn -0.3143 0.2918 0.9034
vn -0.0150 -0.6032 0.7974
vn 0.9919 -0.1271 0.0000
usemtl material_20___22299.005
s 1
f 328//774 326//774 325//774
f 332//775 330//775 329//775
f 332//776 325//776 326//776
f 335//777 334//777 333//777
f 329//778 328//778 325//778
f 338//779 332//779 326//779
f 337//780 339//780 336//780
f 331//781 340//782 330//783
f 328//784 333//784 327//784
f 338//785 327//785 334//785
f 337//780 338//780 339//780
f 335//786 341//786 339//786
f 341//787 340//787 339//787
f 336//788 342//788 340//788
f 340//789 342//789 339//789
f 339//790 342//790 336//790
f 333//791 343//791 327//791
f 334//792 343//792 333//792
f 327//793 343//793 334//793
f 339//794 334//794 335//794
f 338//795 334//795 339//795
f 330//796 340//796 341//796
f 335//797 333//797 328//797
f 341//798 335//798 328//798
f 330//799 341//799 328//799
f 328//774 327//774 326//774
f 332//775 331//775 330//775
f 332//776 329//776 325//776
f 329//778 330//778 328//778
f 326//779 327//779 338//779
f 338//779 337//779 332//779
f 331//779 332//779 337//779
f 337//779 336//779 331//779
f 331//781 336//800 340//782
o mesh_1405294762_mesh.013
v 1.088040 2.909615 0.341898
v 1.054186 2.880633 0.328191
v 1.054186 2.960633 0.324227
v 1.256923 2.907727 0.339185
v 1.294186 2.960633 0.320246
v 1.294186 2.880633 0.318299
v 1.294186 2.880633 0.142817
v 1.054186 2.880633 0.142817
v 1.054186 2.960633 0.323214
v 1.124988 2.960633 0.322338
v 1.178905 2.931880 0.334299
v 1.171781 2.912273 0.331367
v 1.294186 2.960633 0.142817
v 1.054186 2.960633 0.142817
v 1.239809 2.960633 0.320918
v 1.217868 2.941427 0.331041
v 1.079186 2.939287 0.344051
v 1.127419 2.958182 0.335055
v 1.263839 2.944532 0.337752
v 1.215019 2.895102 0.337911
v 1.145659 2.885213 0.338722
vn -0.4079 0.0452 0.9119
vn 0.4770 -0.0214 0.8787
vn 0.0000 -1.0000 0.0000
vn 0.0000 1.0000 0.0000
vn 0.1284 -0.1922 0.9729
vn 0.0000 0.0000 -1.0000
vn 1.0000 -0.0000 0.0000
vn -1.0000 0.0000 0.0000
vn 0.0110 0.4564 0.8897
vn -0.7273 -0.2630 0.6339
vn -0.0951 0.6154 0.7825
vn 0.1889 -0.0149 0.9819
vn 0.0050 0.9821 0.1884
vn 0.1865 0.9707 0.1514
vn 0.0609 0.0907 0.9940
vn 0.5245 -0.0655 0.8489
vn -0.1344 0.8344 0.5345
vn -0.1485 0.0663 0.9867
vn 0.0881 0.5406 0.8367
vn -0.0910 -0.3369 0.9371
vn 0.1228 -0.4944 0.8605
vn 0.0928 -0.5847 0.8059
vn 0.0184 0.2549 0.9668
vn -0.0811 0.1700 0.9821
vn -0.0968 -0.1127 0.9889
vn 0.0226 -0.0765 0.9968
vn 0.0126 -0.9523 0.3049
usemtl material_20___22299.011
s 1
f 346//801 345//801 344//801
f 349//802 348//802 347//802
f 351//803 349//803 345//803
f 353//804 352//804 346//804
f 355//805 354//805 344//805
f 356//806 351//806 357//806
f 358//804 356//804 353//804
f 349//807 356//807 348//807
f 352//808 351//808 345//808
f 359//809 358//809 353//809
f 359//809 348//809 358//809
f 344//810 360//810 346//810
f 346//811 360//811 361//811
f 361//812 360//812 344//812
f 346//813 361//813 353//813
f 353//814 361//814 359//814
f 354//815 361//815 344//815
f 348//816 362//816 347//816
f 359//817 362//817 348//817
f 347//818 362//818 359//818
f 363//819 355//819 344//819
f 364//820 344//820 345//820
f 363//821 349//821 347//821
f 364//822 349//822 363//822
f 347//823 359//823 354//823
f 347//824 355//824 363//824
f 354//825 355//825 347//825
f 364//826 363//826 344//826
f 349//827 364//827 345//827
f 351//803 350//803 349//803
f 356//806 350//806 351//806
f 352//804 353//804 357//804
f 358//804 348//804 356//804
f 356//804 357//804 353//804
f 349//807 350//807 356//807
f 345//808 346//808 352//808
f 352//808 357//808 351//808
f 354//815 359//815 361//815
o hell_1x1_mesh
v 0.894187 2.880633 0.142817
v 0.894187 2.960633 0.142817
v 0.894187 2.960633 0.311244
v 0.894187 2.960633 0.312539
v 0.894187 2.880633 0.316840
v 0.974187 2.880633 0.142817
v 0.974187 2.880633 0.328261
v 0.974187 2.960633 0.318773
v 0.974187 2.960633 0.142817
v 0.917878 2.911332 0.336280
v 0.911859 2.954195 0.337898
v 0.962797 2.903765 0.333531
v 0.974187 2.960633 0.319400
v 0.954139 2.945399 0.341876
vn -1.0000 0.0000 0.0000
vn 1.0000 -0.0000 0.0000
vn 0.0000 -0.0000 -1.0000
vn 0.0561 -0.0298 0.9980
vn 0.0000 -1.0000 0.0000
vn 0.0000 1.0000 0.0000
vn 0.1268 0.9801 0.1527
vn -0.0209 0.9686 0.2478
vn -0.0256 0.9677 0.2507
vn 0.9781 -0.1621 0.1305
vn 0.5756 0.0955 0.8121
vn 0.5727 0.0966 0.8141
vn -0.6644 0.0401 0.7463
vn 0.7397 0.0190 0.6727
vn -0.1370 -0.2220 0.9654
vn 0.1035 0.7780 0.6197
vn -0.8287 -0.1368 0.5428
vn -0.0344 -0.5156 0.8561
vn -0.1355 -0.2830 0.9495
vn 0.3423 0.9396 0.0000
vn 0.9805 -0.1964 0.0000
usemtl material_20___22299.021
s 1
f 368//828 367//828 369//828
f 372//829 370//829 373//829
f 373//830 365//830 366//830
f 376//831 375//831 374//831
f 370//832 369//832 365//832
f 372//833 373//833 367//833
f 367//834 375//835 377//836
f 372//837 376//838 371//839
f 369//840 374//840 368//840
f 377//841 378//841 376//841
f 376//842 378//842 375//842
f 375//843 378//843 377//843
f 374//844 375//844 368//844
f 376//845 374//845 369//845
f 371//846 376//846 369//846
f 365//828 369//828 367//828
f 367//828 366//828 365//828
f 372//829 371//829 370//829
f 373//830 370//830 365//830
f 370//832 371//832 369//832
f 366//833 367//833 373//833
f 377//833 372//833 367//833
f 367//834 368//847 375//835
f 372//837 377//848 376//838
o mesh_498429311_mesh.012
v 1.614187 2.880296 0.102817
v 1.614187 3.120295 0.102817
v 1.614187 3.120295 0.274737
v 1.614187 2.880296 0.272406
v 1.854187 2.880296 0.102817
v 1.854187 2.880296 0.276920
v 1.854187 3.120295 0.278928
v 1.854187 3.120295 0.102817
v 1.636739 2.939621 0.306310
v 1.682210 3.105930 0.295465
v 1.721490 2.984455 0.276094
v 1.854187 3.120295 0.279434
v 1.788505 3.120295 0.278149
v 1.687549 3.120295 0.276173
v 1.765108 3.110718 0.305049
v 1.833539 2.959122 0.301626
v 1.777571 2.930104 0.313155
v 1.819188 3.062867 0.299289
v 1.644895 3.033273 0.308855
vn 0.0000 1.0000 0.0000
vn -0.0065 0.9438 0.3304
vn -0.0116 0.8036 0.5951
vn -0.1131 0.8117 0.5731
vn -1.0000 0.0000 -0.0000
vn 1.0000 -0.0000 0.0000
vn 0.0000 -0.0000 -1.0000
vn 0.3521 -0.0353 0.9353
vn 0.0000 -1.0000 0.0000
vn 0.9901 -0.1156 0.0800
vn 0.7592 -0.0056 0.6508
vn 0.7587 -0.0055 0.6514
vn -0.8282 -0.0054 0.5604
vn -0.5518 -0.0006 0.8340
vn 0.1734 0.0561 0.9832
vn 0.3956 0.0753 0.9153
vn 0.1425 0.0420 0.9889
vn 0.2549 0.1736 0.9513
vn -0.6893 0.0404 0.7234
vn 0.4434 -0.0629 0.8941
vn -0.2234 0.2864 0.9317
vn -0.1020 -0.1887 0.9767
vn 0.3016 -0.2123 0.9295
vn 0.5255 -0.5639 0.6371
vn -0.3143 0.2918 0.9034
vn -0.0150 -0.6032 0.7974
vn 0.9919 -0.1271 0.0000
usemtl material_9___22299.006
s 1
f 392//849 386//849 380//849
f 391//850 393//850 390//850
f 392//851 381//851 388//851
f 391//850 392//850 393//850
f 392//852 388//852 393//852
f 380//849 381//849 392//849
f 392//849 391//849 386//849
f 385//849 386//849 391//849
f 391//849 390//849 385//849
usemtl material_20___22299
f 382//853 380//853 379//853
f 386//854 384//854 383//854
f 386//855 379//855 380//855
f 389//856 388//856 387//856
f 383//857 382//857 379//857
f 385//858 394//859 384//860
f 382//861 387//861 381//861
f 389//862 395//862 393//862
f 395//863 394//863 393//863
f 390//864 396//864 394//864
f 394//865 396//865 393//865
f 393//866 396//866 390//866
f 387//867 397//867 381//867
f 388//868 397//868 387//868
f 381//869 397//869 388//869
f 393//870 388//870 389//870
f 384//871 394//871 395//871
f 389//872 387//872 382//872
f 395//873 389//873 382//873
f 384//874 395//874 382//874
f 382//853 381//853 380//853
f 386//854 385//854 384//854
f 386//855 383//855 379//855
f 383//857 384//857 382//857
f 385//858 390//875 394//859
o grass_1x1_mesh.018
v 1.934186 2.877169 0.102817
v 1.934186 2.957170 0.102817
v 1.934186 2.957170 0.271244
v 1.934186 2.957170 0.272539
v 1.934186 2.877169 0.276841
v 2.014186 2.877169 0.102817
v 2.014186 2.877169 0.288262
v 2.014186 2.957170 0.278773
v 2.014186 2.957170 0.102817
v 1.957878 2.907868 0.296280
v 1.951859 2.950731 0.287898
v 2.002796 2.900302 0.293531
v 2.014186 2.957170 0.279400
v 2.000064 2.953614 0.289947
vn 0.0000 1.0000 0.0000
vn 0.1763 0.9665 0.1866
vn -0.0337 0.9196 0.3913
vn -0.0405 0.9167 0.3974
vn -0.0680 0.9694 0.2358
vn 0.3423 0.9396 0.0000
vn -1.0000 0.0000 0.0000
vn 1.0000 0.0000 0.0000
vn 0.0000 -0.0000 -1.0000
vn 0.0940 0.2038 0.9745
vn 0.0000 -1.0000 0.0000
vn 0.9781 -0.1620 0.1305
vn 0.5756 0.0955 0.8122
vn 0.5727 0.0966 0.8141
vn -0.6644 0.0401 0.7463
vn 0.5826 0.0842 0.8084
vn -0.0463 0.0646 0.9968
vn -0.6424 0.0592 0.7640
vn -0.0344 -0.5156 0.8562
vn -0.1356 -0.2830 0.9495
vn 0.9805 -0.1963 0.0000
usemtl material_9___22299.023
s 1
f 410//876 405//876 400//876
f 400//877 408//878 410//879
f 408//880 411//880 410//880
f 399//876 400//876 406//876
f 405//876 406//876 400//876
f 400//877 401//881 408//878
usemtl material_20___22299.007
f 401//882 400//882 402//882
f 405//883 403//883 406//883
f 406//884 398//884 399//884
f 409//885 408//885 407//885
f 403//886 402//886 398//886
f 405//887 409//888 404//889
f 402//890 407//890 401//890
f 410//891 411//891 409//891
f 409//892 411//892 408//892
f 407//893 408//893 401//893
f 409//894 407//894 402//894
f 404//895 409//895 402//895
f 398//882 402//882 400//882
f 400//882 399//882 398//882
f 405//883 404//883 403//883
f 406//884 403//884 398//884
f 403//886 404//886 402//886
f 405//887 410//896 409//888
o mesh_10176177_mesh.010
v 2.128040 2.909191 0.301898
v 2.094186 2.880209 0.288191
v 2.094821 2.960633 0.282650
v 2.296922 2.907303 0.299186
v 2.334186 2.960209 0.280246
v 2.334186 2.880209 0.278299
v 2.334186 2.880209 0.102817
v 2.094186 2.880209 0.102817
v 2.218905 2.931456 0.294299
v 2.211781 2.911848 0.291368
v 2.334186 2.960209 0.102817
v 2.094186 2.960209 0.102817
v 2.279809 2.960209 0.280918
v 2.164987 2.960209 0.282338
v 2.259684 2.951538 0.297602
v 2.120248 2.951635 0.301599
v 2.167419 2.957757 0.295055
v 2.311069 2.947978 0.293274
v 2.255019 2.894677 0.297911
v 2.185659 2.884788 0.298722
vn 0.0000 1.0000 0.0000
vn 0.0023 1.0000 -0.0009
vn 0.0058 0.8844 0.4666
vn -0.0472 0.8763 0.4794
vn 0.0068 0.9821 0.1880
vn 0.0613 0.9822 0.1776
vn 0.1084 0.6215 0.7759
vn 0.0060 1.0000 -0.0024
vn 0.0014 1.0000 -0.0006
vn -0.4223 0.0656 0.9041
vn 0.4769 -0.0214 0.8787
vn 0.0000 -1.0000 0.0000
vn 0.1285 -0.1922 0.9729
vn 0.0000 -0.0000 -1.0000
vn 1.0000 0.0000 0.0000
vn -1.0000 0.0059 0.0009
vn -1.0000 0.0021 0.0026
vn -1.0000 0.0079 0.0000
vn -0.6184 -0.1080 0.7784
vn 0.1333 0.0315 0.9906
vn 0.0609 0.0907 0.9940
vn 0.5115 -0.0532 0.8576
vn 0.0911 0.1121 0.9895
vn 0.0881 0.5406 0.8367
vn -0.0910 -0.3369 0.9371
vn 0.1228 -0.4944 0.8605
vn 0.0928 -0.5847 0.8059
vn -0.0695 -0.0228 0.9973
vn -0.0811 0.1700 0.9821
vn -0.0968 -0.1127 0.9889
vn 0.0226 -0.0765 0.9968
vn 0.0126 -0.9523 0.3049
vn -0.0339 -0.0949 0.9949
vn -1.0000 -0.0000 0.0035
usemtl material_9___22299
s 1
f 424//897 422//897 425//898
f 426//899 424//899 425//899
f 426//899 416//899 424//899
f 414//900 427//900 428//900
f 414//901 428//901 425//901
f 425//902 428//902 426//902
f 426//903 429//903 416//903
f 414//904 425//898 423//905
f 424//897 416//897 422//897
f 422//897 423//905 425//898
usemtl material_20___22299.017
f 414//906 413//906 412//906
f 417//907 416//907 415//907
f 419//908 417//908 413//908
f 421//909 420//909 412//909
f 422//910 419//910 423//910
f 417//911 422//911 416//911
f 414//912 419//913 413//914
f 412//915 427//915 414//915
f 428//916 427//916 412//916
f 420//917 428//917 412//917
f 416//918 429//918 415//918
f 415//919 429//919 426//919
f 430//920 421//920 412//920
f 431//921 412//921 413//921
f 430//922 417//922 415//922
f 431//923 417//923 430//923
f 415//924 426//924 420//924
f 415//925 421//925 430//925
f 420//926 421//926 415//926
f 431//927 430//927 412//927
f 417//928 431//928 413//928
f 420//929 426//929 428//929
f 419//908 418//908 417//908
f 422//910 418//910 419//910
f 417//911 418//911 422//911
f 414//912 423//930 419//913
o hell_s0_mesh.001
v 0.454187 2.465426 0.133827
v 0.454459 2.549845 0.127926
v 0.454459 2.549845 0.284407
v 1.494187 2.562213 0.277686
v 1.491771 2.549000 0.123636
v 1.487242 2.369889 0.122818
v 0.854976 2.410375 0.293985
v 0.661475 2.249097 0.145775
v 0.678656 2.390509 0.253387
v 0.823710 2.549542 0.295075
v 0.843139 2.529815 0.311086
v 1.048661 2.549363 0.310331
v 1.090508 2.508597 0.324560
v 1.421318 2.548964 0.123265
v 1.052904 2.549299 0.125041
v 0.826307 2.549506 0.126134
v 1.493658 2.780557 0.125436
v 1.421528 2.780536 0.123138
v 1.492463 2.779128 0.310694
v 1.455428 2.512538 0.326918
v 1.490544 2.779167 0.310634
v 1.419858 2.549061 0.308542
v 1.420067 2.780633 0.308415
v 1.053793 2.626853 0.123295
v 0.982703 2.625915 0.123486
v 0.903678 2.624873 0.123699
v 0.827214 2.623864 0.123904
v 1.049179 2.624939 0.308566
v 0.970856 2.620631 0.319505
v 0.823995 2.621946 0.309171
v 0.898119 2.622931 0.308972
v 0.982847 2.699293 0.126954
v 0.903817 2.698698 0.126681
v 0.971646 2.696758 0.312167
v 0.897116 2.696188 0.311910
v 0.473243 2.527938 0.308222
v 0.953786 2.570197 0.332496
v 1.444496 2.449684 0.296134
v 1.458921 2.422231 0.240086
v 1.293752 2.450752 0.344551
v 1.244533 2.497360 0.353082
v 1.003697 2.377289 0.288575
v 0.871912 2.078112 0.109419
v 1.180092 2.409984 0.304933
v 1.190052 2.219934 0.119340
vn -1.0000 0.0032 -0.0000
vn 0.9996 -0.0252 -0.0135
vn -0.1168 -0.5924 0.7971
vn -0.0222 0.6167 0.7869
vn -0.1873 0.1468 0.9713
vn -0.0002 -0.9905 0.1377
vn -0.0002 -0.9900 0.1407
vn -0.0002 -0.9902 0.1397
vn 0.0268 0.0060 -0.9996
vn 0.0104 0.0010 -0.9999
vn 0.0053 -0.0006 -1.0000
vn 0.9999 -0.0082 0.0064
vn 0.0933 -0.1480 0.9846
vn 0.8161 -0.0734 0.5733
vn -0.0342 -0.1506 0.9880
vn -1.0000 0.0009 -0.0079
vn 0.0205 0.9998 0.0078
vn 0.0046 1.0000 0.0014
vn 0.0157 0.9999 0.0059
vn -0.0024 -0.0225 -0.9997
vn -0.0031 -0.0239 -0.9997
vn -0.0039 -0.0272 -0.9996
vn 0.0009 1.0000 -0.0005
vn 0.0008 1.0000 -0.0004
vn 0.0008 1.0000 -0.0003
vn 0.9997 -0.0075 0.0234
vn 0.9997 -0.0098 0.0243
vn 0.9996 -0.0109 0.0248
vn -0.0516 0.9984 0.0238
vn -0.9998 0.0106 -0.0159
vn -0.9998 0.0083 -0.0168
vn -0.9998 0.0073 -0.0173
vn -0.0132 0.9999 0.0101
vn -0.0133 0.9999 0.0101
vn -0.0002 0.0436 -0.9990
vn 0.0001 0.0439 -0.9990
vn -0.0032 0.0404 -0.9992
vn -0.0132 0.9999 0.0100
vn 0.9982 -0.0046 0.0602
vn 0.9982 -0.0047 0.0603
vn 0.9982 -0.0048 0.0603
vn -0.0031 -0.0401 0.9992
vn -0.9995 -0.0006 -0.0315
vn -0.9994 -0.0086 -0.0348
vn -0.9993 -0.0122 -0.0363
vn -0.0077 0.9999 0.0133
vn -0.0076 0.9999 0.0132
vn 0.0008 1.0000 -0.0002
vn 0.0009 1.0000 -0.0001
vn -0.2677 -0.8050 -0.5294
vn -0.0090 0.7324 0.6808
vn -0.0069 -0.1424 0.9898
vn 0.0170 -0.1401 0.9900
vn -0.7070 -0.1325 0.6947
vn 0.0024 0.0213 0.9998
vn 0.2318 0.0211 0.9725
vn -0.1283 0.2879 0.9490
vn 0.1241 0.2079 0.9702
vn -0.1397 0.0964 0.9855
vn -0.2456 0.1667 0.9549
vn 0.0590 -0.5889 0.8060
vn 0.8744 -0.3274 0.3580
vn -0.0315 0.0006 0.9995
vn 0.8800 -0.3168 0.3539
vn -0.9368 -0.3421 -0.0736
vn 0.8675 -0.3207 0.3803
vn 0.9998 0.0105 -0.0166
vn 0.2684 -0.4610 0.8459
vn 0.0707 0.5024 0.8617
vn -0.3692 0.1050 0.9234
vn -0.4832 -0.7633 0.4288
vn 0.0048 0.3339 0.9426
vn -0.1732 0.1106 0.9787
vn -0.0861 -0.2666 0.9599
vn -0.0628 0.7651 0.6408
vn 0.1264 -0.0479 0.9908
vn 0.1356 -0.8868 0.4417
vn -0.0171 -0.0697 -0.9974
vn -0.0767 -0.4871 0.8699
vn -0.0261 -0.6583 0.7523
vn -0.0041 0.0047 -1.0000
vn -0.0072 0.0374 -0.9993
vn -0.5320 -0.4709 0.7037
vn 0.2648 -0.5433 0.7967
vn -0.2448 -0.4803 0.8422
vn 0.2308 -0.5727 0.7866
vn -0.0405 0.1599 -0.9863
vn -0.0556 -0.1081 -0.9926
vn -0.0325 -0.3017 0.9529
vn 0.1556 -0.8765 0.4555
vn 0.1285 -0.9007 0.4150
vn -0.1619 -0.4032 0.9007
vn 0.0318 0.0075 -0.9995
vn 0.8181 -0.0729 0.5705
vn -0.0003 1.0000 -0.0005
vn 0.0204 0.9998 0.0078
vn -0.0036 -0.0286 -0.9996
vn -0.0023 -0.0299 -0.9995
vn 0.9997 -0.0063 0.0229
vn -0.9998 0.0117 -0.0154
vn 0.0031 0.0472 -0.9989
vn -0.9995 0.0031 -0.0300
vn 0.0009 1.0000 0.0000
usemtl material_20___22299.006
s 1
f 434//931 433//931 432//931
f 437//932 436//932 435//932
f 440//933 439//933 438//933
f 442//934 441//934 434//934
f 444//935 443//935 438//935
f 447//936 446//937 436//938
f 449//939 436//940 445//941
f 448//942 450//942 436//942
f 452//943 435//944 450//945
f 454//946 445//946 453//946
f 452//947 448//948 454//949
f 456//950 446//951 457//952
f 453//953 446//954 443//955
f 459//956 446//957 455//958
f 456//959 460//959 459//959
f 458//960 441//961 461//962
f 462//963 458//963 461//964
f 464//965 456//966 457//967
f 459//968 455//968 456//968
f 465//969 456//970 463//971
f 465//972 466//972 462//972
f 464//973 462//974 466//975
f 465//976 464//977 466//976
f 447//978 434//979 441//978
f 438//980 467//980 434//980
f 434//981 467//981 442//981
f 442//982 467//982 438//982
f 443//983 442//983 438//983
f 441//984 442//984 461//984
f 462//985 461//985 442//985
f 468//986 443//986 459//986
f 460//987 462//987 468//987
f 459//988 460//988 468//988
f 462//989 460//989 465//989
f 442//990 468//990 462//990
f 443//991 468//991 442//991
f 469//992 435//992 451//992
f 452//993 454//993 453//993
f 435//994 470//994 437//994
f 437//995 470//995 469//995
f 469//996 470//996 435//996
f 450//997 435//997 436//997
f 471//998 469//998 451//998
f 472//999 451//999 453//999
f 453//1000 451//1000 452//1000
f 432//1001 440//1001 434//1001
f 444//1002 453//1002 443//1002
f 444//1003 438//1003 472//1003
f 472//1004 438//1004 471//1004
f 453//1005 444//1005 472//1005
f 451//1006 472//1006 471//1006
f 469//1007 471//1007 437//1007
f 437//1008 432//1008 433//1008
f 474//1009 473//1009 438//1009
f 475//1010 471//1010 438//1010
f 436//1011 437//1011 433//1011
f 437//1012 476//1012 432//1012
f 440//1013 432//1013 439//1013
f 476//1014 437//1014 473//1014
f 439//1015 474//1015 438//1015
f 473//1016 474//1016 476//1016
f 476//1017 474//1017 439//1017
f 476//1018 439//1018 432//1018
f 475//1019 438//1019 473//1019
f 471//1020 475//1020 437//1020
f 475//1021 473//1021 437//1021
f 440//1022 438//1022 434//1022
f 436//938 433//936 447//936
f 446//937 445//938 436//938
f 449//939 448//1023 436//940
f 452//943 451//1024 435//944
f 454//946 449//946 445//946
f 449//1025 454//949 448//948
f 452//947 450//1026 448//948
f 447//1027 458//1028 457//952
f 456//950 455//950 446//951
f 447//1027 457//952 446//951
f 453//953 445//953 446//954
f 459//956 443//1029 446//957
f 458//960 447//1030 441//961
f 462//963 457//963 458//963
f 464//965 463//1031 456//966
f 465//969 460//969 456//970
f 464//973 457//1032 462//974
f 465//976 463//977 464//977
f 447//978 433//1033 434//979
